<?xml version="1.0" encoding="UTF-8" standalone="no"?>
<svg
   xmlns:dc="http://purl.org/dc/elements/1.1/"
   xmlns:cc="http://creativecommons.org/ns#"
   xmlns:rdf="http://www.w3.org/1999/02/22-rdf-syntax-ns#"
   xmlns:svg="http://www.w3.org/2000/svg"
   xmlns="http://www.w3.org/2000/svg"
   xmlns:xlink="http://www.w3.org/1999/xlink"
   xmlns:sodipodi="http://sodipodi.sourceforge.net/DTD/sodipodi-0.dtd"
   xmlns:inkscape="http://www.inkscape.org/namespaces/inkscape"
   inkscape:version="1.0 (4035a4fb49, 2020-05-01)"
   sodipodi:docname="redo_nb_icon.svg"
   id="svg31"
   xml:space="preserve"
   viewBox="0 0 35.999 36.005"
   version="1.1"
   style="enable-background:new 0 0 35.999 36.005;"><metadata
     id="metadata37"><rdf:RDF><cc:Work
         rdf:about=""><dc:format>image/svg+xml</dc:format><dc:type
           rdf:resource="http://purl.org/dc/dcmitype/StillImage" /><dc:title></dc:title></cc:Work></rdf:RDF></metadata><defs
     id="defs35"><defs
       id="defs5"><rect
         y="0"
         x="0"
         width="35.999001"
         id="SVGID_1_"
         height="36.005001" /></defs><clipPath
       id="SVGID_2_"><use
         height="100%"
         width="100%"
         y="0"
         x="0"
         id="use7"
         xlink:href="#SVGID_1_"
         style="overflow:visible" /></clipPath></defs><sodipodi:namedview
     inkscape:current-layer="svg31"
     inkscape:window-maximized="1"
     inkscape:window-y="-8"
     inkscape:window-x="-8"
     inkscape:cy="18.002501"
     inkscape:cx="17.9995"
     inkscape:zoom="17.889386"
     showgrid="false"
     id="namedview33"
     inkscape:window-height="961"
     inkscape:window-width="1280"
     inkscape:pageshadow="2"
     inkscape:pageopacity="0"
     guidetolerance="10"
     gridtolerance="10"
     objecttolerance="10"
     borderopacity="1"
     bordercolor="#666666"
     pagecolor="#ffffff" /><path
     d="M 35.999,0 V 36.005 H 0 V 0 Z"
     marker-end="none"
     marker-start="none"
     style="fill:none"
     id="path2" /><g
     style="fill:#c0bfbc"
     transform="matrix(-1,0,0,1,35.999,0)"
     id="Group_15"><path
       id="path10"
       style="fill:#c0bfbc"
       marker-start="none"
       marker-end="none"
       d="m 11.173,30.759 c -0.014,-1.363 1.009,-2.59 2.409,-2.605 7.01,-0.085 10.568,-2.618 12.294,-5.211 1.764,-2.646 1.896,-6.056 0.773,-8.993 -1.148,-3.003 -3.619,-4.752 -6.071,-5.063 -1.5,-0.184 -3.301,0.02 -5.521,1.693 l -0.913,0.757 -0.043,0.066 3.781,4.231 c 0.405,0.453 0.128,1.178 -0.477,1.245 L 4.243,18.341 C 3.764,18.394 3.36,17.987 3.416,17.509 L 4.991,4.01 C 5.065,3.372 5.86,3.117 6.291,3.593 l 3.811,4.203 0.039,-0.046 0.054,-0.057 c 3.583,-3.43 7.342,-4.378 10.959,-3.924 4.7,0.59 8.401,4.027 10.016,8.248 1.633,4.27 1.567,9.582 -1.309,13.898 -2.91,4.37 -8.211,7.295 -16.222,7.393 -1.402,0.019 -2.452,-1.184 -2.466,-2.549 z" /><linearGradient
       y2="-123.3518"
       y1="-161.71181"
       x2="-391.55481"
       x1="-391.3298"
       id="SVGID_3_"
       gradientUnits="userSpaceOnUse"
       gradientTransform="translate(409.28,158.776)"><stop
         id="stop12"
         style="stop-color:#73AEFF"
         offset="0" /><stop
         id="stop14"
         style="stop-color:#478DEC"
         offset="0.5446" /><stop
         id="stop16"
         style="stop-color:#205DAF"
         offset="1" /></linearGradient><path
       id="path19"
       style="fill:#c0bfbc"
       marker-start="none"
       marker-end="none"
       d="m 11.923,30.751 c -0.01,-1.008 0.738,-1.838 1.668,-1.848 7.207,-0.087 11.02,-2.706 12.91,-5.545 1.921,-2.883 2.043,-6.555 0.849,-9.676 -1.244,-3.254 -3.942,-5.193 -6.678,-5.54 -1.941,-0.239 -4.263,0.135 -7.094,2.691 l -0.417,0.641 4.162,4.659 -13.162,1.462 1.575,-13.499 4.387,4.837 0.591,-0.699 c 3.42,-3.274 6.954,-4.147 10.347,-3.721 4.381,0.55 7.876,3.764 9.409,7.771 1.563,4.087 1.485,9.136 -1.233,13.215 -2.742,4.118 -7.783,6.963 -15.607,7.059 -0.931,0.012 -1.696,-0.799 -1.707,-1.807 z" /></g><g
     transform="matrix(-1,0,0,1,35.999,0)"
     id="Layer_1" /></svg>
